country,year,value
AFG,2013,1
AFG,2014,1
AFG,2015,1
AFG,2016,1
AFG,2017,1
AFG,2018,1
ALB,2013,2
ALB,2014,2
ALB,2015,2
ALB,2016,2
ALB,2017,2
ALB,2018,2
DZA,2013,1
DZA,2014,1
DZA,2015,1
DZA,2016,1
DZA,2017,1
DZA,2018,1
AND,2013,3
AND,2014,3
AND,2015,3
AND,2016,3
AND,2017,3
AND,2018,3
AGO,2013,1
AGO,2014,1
AGO,2015,1
AGO,2016,1
AGO,2017,1
AGO,2018,1
ATG,2013,3
ATG,2014,3
ATG,2015,3
ATG,2016,3
ATG,2017,3
ATG,2018,3
ARG,2013,3
ARG,2014,3
ARG,2015,3
ARG,2016,3
ARG,2017,3
ARG,2018,3
ARM,2013,2
ARM,2014,2
ARM,2015,2
ARM,2016,2
ARM,2017,2
ARM,2018,2
AUS,2013,3
AUS,2014,3
AUS,2015,3
AUS,2016,3
AUS,2017,3
AUS,2018,3
AUT,2013,3
AUT,2014,3
AUT,2015,3
AUT,2016,3
AUT,2017,3
AUT,2018,3
AZE,2013,1
AZE,2014,1
AZE,2015,1
AZE,2016,1
AZE,2017,1
AZE,2018,1
BHS,2013,3
BHS,2014,3
BHS,2015,3
BHS,2016,3
BHS,2017,3
BHS,2018,3
BHR,2013,1
BHR,2014,1
BHR,2015,1
BHR,2016,1
BHR,2017,1
BHR,2018,1
BGD,2013,2
BGD,2014,2
BGD,2015,2
BGD,2016,2
BGD,2017,2
BGD,2018,2
BRB,2013,3
BRB,2014,3
BRB,2015,3
BRB,2016,3
BRB,2017,3
BRB,2018,3
BLR,2013,1
BLR,2014,1
BLR,2015,1
BLR,2016,1
BLR,2017,1
BLR,2018,1
BEL,2013,3
BEL,2014,3
BEL,2015,3
BEL,2016,3
BEL,2017,3
BEL,2018,3
BLZ,2013,3
BLZ,2014,3
BLZ,2015,3
BLZ,2016,3
BLZ,2017,3
BLZ,2018,3
BEN,2013,3
BEN,2014,3
BEN,2015,3
BEN,2016,3
BEN,2017,3
BEN,2018,3
BTN,2013,2
BTN,2014,2
BTN,2015,2
BTN,2016,2
BTN,2017,2
BTN,2018,2
BOL,2013,2
BOL,2014,2
BOL,2015,2
BOL,2016,2
BOL,2017,2
BOL,2018,2
BIH,2013,2
BIH,2014,2
BIH,2015,2
BIH,2016,2
BIH,2017,2
BIH,2018,2
BWA,2013,3
BWA,2014,3
BWA,2015,3
BWA,2016,3
BWA,2017,3
BWA,2018,3
BRA,2013,3
BRA,2014,3
BRA,2015,3
BRA,2016,3
BRA,2017,3
BRA,2018,3
BRN,2013,1
BRN,2014,1
BRN,2015,1
BRN,2016,1
BRN,2017,1
BRN,2018,1
BGR,2013,3
BGR,2014,3
BGR,2015,3
BGR,2016,3
BGR,2017,3
BGR,2018,3
BFA,2013,2
BFA,2014,2
BFA,2015,2
BFA,2016,2
BFA,2017,2
BFA,2018,2
BDI,2013,2
BDI,2014,2
BDI,2015,1
BDI,2016,1
BDI,2017,1
BDI,2018,1
KHM,2013,1
KHM,2014,1
KHM,2015,1
KHM,2016,1
KHM,2017,1
KHM,2018,1
CMR,2013,1
CMR,2014,1
CMR,2015,1
CMR,2016,1
CMR,2017,1
CMR,2018,1
CAN,2013,3
CAN,2014,3
CAN,2015,3
CAN,2016,3
CAN,2017,3
CAN,2018,3
CPV,2013,3
CPV,2014,3
CPV,2015,3
CPV,2016,3
CPV,2017,3
CPV,2018,3
CAF,2013,2
CAF,2014,1
CAF,2015,1
CAF,2016,1
CAF,2017,1
CAF,2018,1
TCD,2013,1
TCD,2014,1
TCD,2015,1
TCD,2016,1
TCD,2017,1
TCD,2018,1
CHL,2013,3
CHL,2014,3
CHL,2015,3
CHL,2016,3
CHL,2017,3
CHL,2018,3
CHN,2013,1
CHN,2014,1
CHN,2015,1
CHN,2016,1
CHN,2017,1
CHN,2018,1
COL,2013,2
COL,2014,2
COL,2015,2
COL,2016,2
COL,2017,2
COL,2018,2
COM,2013,2
COM,2014,2
COM,2015,2
COM,2016,2
COM,2017,2
COM,2018,2
CRI,2013,3
CRI,2014,3
CRI,2015,3
CRI,2016,3
CRI,2017,3
CRI,2018,3
CIV,2013,2
CIV,2014,2
CIV,2015,2
CIV,2016,2
CIV,2017,2
CIV,2018,2
HRV,2013,3
HRV,2014,3
HRV,2015,3
HRV,2016,3
HRV,2017,3
HRV,2018,3
CUB,2013,1
CUB,2014,1
CUB,2015,1
CUB,2016,1
CUB,2017,1
CUB,2018,1
CYP,2013,3
CYP,2014,3
CYP,2015,3
CYP,2016,3
CYP,2017,3
CYP,2018,3
CZE,2013,3
CZE,2014,3
CZE,2015,3
CZE,2016,3
CZE,2017,3
CZE,2018,3
PRK,2013,1
PRK,2014,1
PRK,2015,1
PRK,2016,1
PRK,2017,1
PRK,2018,1
DNK,2013,3
DNK,2014,3
DNK,2015,3
DNK,2016,3
DNK,2017,3
DNK,2018,3
DJI,2013,1
DJI,2014,1
DJI,2015,1
DJI,2016,1
DJI,2017,1
DJI,2018,1
DMA,2013,3
DMA,2014,3
DMA,2015,3
DMA,2016,3
DMA,2017,3
DMA,2018,3
DOM,2013,3
DOM,2014,3
DOM,2015,3
DOM,2016,2
DOM,2017,2
DOM,2018,2
ECU,2013,2
ECU,2014,2
ECU,2015,2
ECU,2016,2
ECU,2017,2
ECU,2018,2
EGY,2013,2
EGY,2014,1
EGY,2015,1
EGY,2016,1
EGY,2017,1
EGY,2018,1
SLV,2013,3
SLV,2014,3
SLV,2015,3
SLV,2016,3
SLV,2017,3
SLV,2018,3
GNQ,2013,1
GNQ,2014,1
GNQ,2015,1
GNQ,2016,1
GNQ,2017,1
GNQ,2018,1
ERI,2013,1
ERI,2014,1
ERI,2015,1
ERI,2016,1
ERI,2017,1
ERI,2018,1
EST,2013,3
EST,2014,3
EST,2015,3
EST,2016,3
EST,2017,3
EST,2018,3
ETH,2013,1
ETH,2014,1
ETH,2015,1
ETH,2016,1
ETH,2017,1
ETH,2018,1
FSM,2013,3
FSM,2014,3
FSM,2015,3
FSM,2016,3
FSM,2017,3
FSM,2018,3
FJI,2013,2
FJI,2014,2
FJI,2015,2
FJI,2016,2
FJI,2017,2
FJI,2018,2
FIN,2013,3
FIN,2014,3
FIN,2015,3
FIN,2016,3
FIN,2017,3
FIN,2018,3
FRA,2013,3
FRA,2014,3
FRA,2015,3
FRA,2016,3
FRA,2017,3
FRA,2018,3
GAB,2013,1
GAB,2014,1
GAB,2015,1
GAB,2016,1
GAB,2017,1
GAB,2018,1
GMB,2013,1
GMB,2014,1
GMB,2015,1
GMB,2016,1
GMB,2017,1
GMB,2018,2
GEO,2013,2
GEO,2014,2
GEO,2015,2
GEO,2016,2
GEO,2017,2
GEO,2018,2
DEU,2013,3
DEU,2014,3
DEU,2015,3
DEU,2016,3
DEU,2017,3
DEU,2018,3
GHA,2013,3
GHA,2014,3
GHA,2015,3
GHA,2016,3
GHA,2017,3
GHA,2018,3
GRC,2013,3
GRC,2014,3
GRC,2015,3
GRC,2016,3
GRC,2017,3
GRC,2018,3
GRD,2013,3
GRD,2014,3
GRD,2015,3
GRD,2016,3
GRD,2017,3
GRD,2018,3
GTM,2013,2
GTM,2014,2
GTM,2015,2
GTM,2016,2
GTM,2017,2
GTM,2018,2
GIN,2013,2
GIN,2014,2
GIN,2015,2
GIN,2016,2
GIN,2017,2
GIN,2018,2
GNB,2013,1
GNB,2014,1
GNB,2015,2
GNB,2016,2
GNB,2017,2
GNB,2018,2
GUY,2013,3
GUY,2014,3
GUY,2015,3
GUY,2016,3
GUY,2017,3
GUY,2018,3
HTI,2013,2
HTI,2014,2
HTI,2015,2
HTI,2016,2
HTI,2017,2
HTI,2018,2
HND,2013,2
HND,2014,2
HND,2015,2
HND,2016,2
HND,2017,2
HND,2018,2
HKG,2013,2
HKG,2014,2
HKG,2015,2
HKG,2016,2
HKG,2017,2
HKG,2018,2
HUN,2013,3
HUN,2014,3
HUN,2015,3
HUN,2016,3
HUN,2017,3
HUN,2018,3
ISL,2013,3
ISL,2014,3
ISL,2015,3
ISL,2016,3
ISL,2017,3
ISL,2018,3
IND,2013,3
IND,2014,3
IND,2015,3
IND,2016,3
IND,2017,3
IND,2018,3
IDN,2013,3
IDN,2014,2
IDN,2015,2
IDN,2016,2
IDN,2017,2
IDN,2018,2
IRQ,2013,1
IRQ,2014,1
IRQ,2015,1
IRQ,2016,1
IRQ,2017,1
IRQ,2018,1
IRL,2013,3
IRL,2014,3
IRL,2015,3
IRL,2016,3
IRL,2017,3
IRL,2018,3
IRN,2013,1
IRN,2014,1
IRN,2015,1
IRN,2016,1
IRN,2017,1
IRN,2018,1
ISR,2013,3
ISR,2014,3
ISR,2015,3
ISR,2016,3
ISR,2017,3
ISR,2018,3
ITA,2013,3
ITA,2014,3
ITA,2015,3
ITA,2016,3
ITA,2017,3
ITA,2018,3
JAM,2013,3
JAM,2014,3
JAM,2015,3
JAM,2016,3
JAM,2017,3
JAM,2018,3
JPN,2013,3
JPN,2014,3
JPN,2015,3
JPN,2016,3
JPN,2017,3
JPN,2018,3
JOR,2013,1
JOR,2014,1
JOR,2015,1
JOR,2016,1
JOR,2017,2
JOR,2018,2
KAZ,2013,1
KAZ,2014,1
KAZ,2015,1
KAZ,2016,1
KAZ,2017,1
KAZ,2018,1
KEN,2013,2
KEN,2014,2
KEN,2015,2
KEN,2016,2
KEN,2017,2
KEN,2018,2
KIR,2013,3
KIR,2014,3
KIR,2015,3
KIR,2016,3
KIR,2017,3
KIR,2018,3
XKO,2013,2
XKO,2014,2
XKO,2015,2
XKO,2016,2
XKO,2017,2
XKO,2018,2
KWT,2013,2
KWT,2014,2
KWT,2015,2
KWT,2016,2
KWT,2017,2
KWT,2018,2
KGZ,2013,2
KGZ,2014,2
KGZ,2015,2
KGZ,2016,2
KGZ,2017,2
KGZ,2018,2
LAO,2013,1
LAO,2014,1
LAO,2015,1
LAO,2016,1
LAO,2017,1
LAO,2018,1
LVA,2013,3
LVA,2014,3
LVA,2015,3
LVA,2016,3
LVA,2017,3
LVA,2018,3
LBN,2013,2
LBN,2014,2
LBN,2015,2
LBN,2016,2
LBN,2017,2
LBN,2018,2
LSO,2013,3
LSO,2014,3
LSO,2015,3
LSO,2016,2
LSO,2017,2
LSO,2018,2
LBR,2013,2
LBR,2014,2
LBR,2015,2
LBR,2016,2
LBR,2017,2
LBR,2018,2
LBY,2013,2
LBY,2014,2
LBY,2015,1
LBY,2016,1
LBY,2017,1
LBY,2018,1
LIE,2013,3
LIE,2014,3
LIE,2015,3
LIE,2016,3
LIE,2017,3
LIE,2018,3
LTU,2013,3
LTU,2014,3
LTU,2015,3
LTU,2016,3
LTU,2017,3
LTU,2018,3
LUX,2013,3
LUX,2014,3
LUX,2015,3
LUX,2016,3
LUX,2017,3
LUX,2018,3
MDG,2013,2
MDG,2014,2
MDG,2015,2
MDG,2016,2
MDG,2017,2
MDG,2018,2
MWI,2013,2
MWI,2014,2
MWI,2015,2
MWI,2016,2
MWI,2017,2
MWI,2018,2
MYS,2013,2
MYS,2014,2
MYS,2015,2
MYS,2016,2
MYS,2017,2
MYS,2018,2
MDV,2013,2
MDV,2014,2
MDV,2015,2
MDV,2016,2
MDV,2017,2
MDV,2018,2
MLI,2013,1
MLI,2014,2
MLI,2015,2
MLI,2016,2
MLI,2017,2
MLI,2018,2
MLT,2013,3
MLT,2014,3
MLT,2015,3
MLT,2016,3
MLT,2017,3
MLT,2018,3
MHL,2013,3
MHL,2014,3
MHL,2015,3
MHL,2016,3
MHL,2017,3
MHL,2018,3
MRT,2013,1
MRT,2014,1
MRT,2015,1
MRT,2016,1
MRT,2017,1
MRT,2018,1
MUS,2013,3
MUS,2014,3
MUS,2015,3
MUS,2016,3
MUS,2017,3
MUS,2018,3
MEX,2013,2
MEX,2014,2
MEX,2015,2
MEX,2016,2
MEX,2017,2
MEX,2018,2
MCO,2013,3
MCO,2014,3
MCO,2015,3
MCO,2016,3
MCO,2017,3
MCO,2018,3
MNG,2013,3
MNG,2014,3
MNG,2015,3
MNG,2016,3
MNG,2017,3
MNG,2018,3
MAR,2013,2
MAR,2014,2
MAR,2015,2
MAR,2016,2
MAR,2017,2
MAR,2018,2
MOZ,2013,2
MOZ,2014,2
MOZ,2015,2
MOZ,2016,2
MOZ,2017,2
MOZ,2018,2
MMR,2013,1
MMR,2014,1
MMR,2015,1
MMR,2016,1
MMR,2017,2
MMR,2018,2
NAM,2013,3
NAM,2014,3
NAM,2015,3
NAM,2016,3
NAM,2017,3
NAM,2018,3
NRU,2013,3
NRU,2014,3
NRU,2015,3
NRU,2016,3
NRU,2017,3
NRU,2018,3
NPL,2013,2
NPL,2014,2
NPL,2015,2
NPL,2016,2
NPL,2017,2
NPL,2018,2
NLD,2013,3
NLD,2014,3
NLD,2015,3
NLD,2016,3
NLD,2017,3
NLD,2018,3
NZL,2013,3
NZL,2014,3
NZL,2015,3
NZL,2016,3
NZL,2017,3
NZL,2018,3
NIC,2013,2
NIC,2014,2
NIC,2015,2
NIC,2016,2
NIC,2017,2
NIC,2018,2
NER,2013,2
NER,2014,2
NER,2015,2
NER,2016,2
NER,2017,2
NER,2018,2
NGA,2013,2
NGA,2014,2
NGA,2015,2
NGA,2016,2
NGA,2017,2
NGA,2018,2
NOR,2013,3
NOR,2014,3
NOR,2015,3
NOR,2016,3
NOR,2017,3
NOR,2018,3
OMN,2013,1
OMN,2014,1
OMN,2015,1
OMN,2016,1
OMN,2017,1
OMN,2018,1
PAK,2013,2
PAK,2014,2
PAK,2015,2
PAK,2016,2
PAK,2017,2
PAK,2018,2
PLW,2013,3
PLW,2014,3
PLW,2015,3
PLW,2016,3
PLW,2017,3
PLW,2018,3
PAN,2013,3
PAN,2014,3
PAN,2015,3
PAN,2016,3
PAN,2017,3
PAN,2018,3
PNG,2013,2
PNG,2014,2
PNG,2015,2
PNG,2016,2
PNG,2017,2
PNG,2018,2
PRY,2013,2
PRY,2014,2
PRY,2015,2
PRY,2016,2
PRY,2017,2
PRY,2018,2
PER,2013,3
PER,2014,3
PER,2015,3
PER,2016,3
PER,2017,3
PER,2018,3
PHL,2013,2
PHL,2014,2
PHL,2015,2
PHL,2016,2
PHL,2017,2
PHL,2018,2
POL,2013,3
POL,2014,3
POL,2015,3
POL,2016,3
POL,2017,3
POL,2018,3
PRT,2013,3
PRT,2014,3
PRT,2015,3
PRT,2016,3
PRT,2017,3
PRT,2018,3
PRI,2013,3
PRI,2014,3
PRI,2015,3
PRI,2016,3
QAT,2013,1
QAT,2014,1
QAT,2015,1
QAT,2016,1
QAT,2017,1
QAT,2018,1
KOR,2013,3
KOR,2014,3
KOR,2015,3
KOR,2016,3
KOR,2017,3
KOR,2018,3
MDA,2013,2
MDA,2014,2
MDA,2015,2
MDA,2016,2
MDA,2017,2
MDA,2018,2
COG,2013,1
COG,2014,1
COG,2015,1
COG,2016,1
COG,2017,1
COG,2018,1
ROU,2013,3
ROU,2014,3
ROU,2015,3
ROU,2016,3
ROU,2017,3
ROU,2018,3
RUS,2013,1
RUS,2014,1
RUS,2015,1
RUS,2016,1
RUS,2017,1
RUS,2018,1
RWA,2013,1
RWA,2014,1
RWA,2015,1
RWA,2016,1
RWA,2017,1
RWA,2018,1
KNA,2013,3
KNA,2014,3
KNA,2015,3
KNA,2016,3
KNA,2017,3
KNA,2018,3
LCA,2013,3
LCA,2014,3
LCA,2015,3
LCA,2016,3
LCA,2017,3
LCA,2018,3
VCT,2013,3
VCT,2014,3
VCT,2015,3
VCT,2016,3
VCT,2017,3
VCT,2018,3
WSM,2013,3
WSM,2014,3
WSM,2015,3
WSM,2016,3
WSM,2017,3
WSM,2018,3
SMR,2013,3
SMR,2014,3
SMR,2015,3
SMR,2016,3
SMR,2017,3
SMR,2018,3
STP,2013,3
STP,2014,3
STP,2015,3
STP,2016,3
STP,2017,3
STP,2018,3
SAU,2013,1
SAU,2014,1
SAU,2015,1
SAU,2016,1
SAU,2017,1
SAU,2018,1
SEN,2013,3
SEN,2014,3
SEN,2015,3
SEN,2016,3
SEN,2017,3
SEN,2018,3
SRB,2013,3
SRB,2014,3
SRB,2015,3
SRB,2016,3
SRB,2017,3
SRB,2018,3
SYC,2013,2
SYC,2014,2
SYC,2015,2
SYC,2016,2
SYC,2017,2
SYC,2018,2
SLE,2013,3
SLE,2014,2
SLE,2015,2
SLE,2016,2
SLE,2017,2
SLE,2018,2
SGP,2013,2
SGP,2014,2
SGP,2015,2
SGP,2016,2
SGP,2017,2
SGP,2018,2
SVK,2013,3
SVK,2014,3
SVK,2015,3
SVK,2016,3
SVK,2017,3
SVK,2018,3
SVN,2013,3
SVN,2014,3
SVN,2015,3
SVN,2016,3
SVN,2017,3
SVN,2018,3
SLB,2013,2
SLB,2014,2
SLB,2015,2
SLB,2016,2
SLB,2017,3
SLB,2018,3
SOM,2013,1
SOM,2014,1
SOM,2015,1
SOM,2016,1
SOM,2017,1
SOM,2018,1
ZAF,2013,3
ZAF,2014,3
ZAF,2015,3
ZAF,2016,3
ZAF,2017,3
ZAF,2018,3
SSD,2013,1
SSD,2014,1
SSD,2015,1
SSD,2016,1
SSD,2017,1
SSD,2018,1
ESP,2013,3
ESP,2014,3
ESP,2015,3
ESP,2016,3
ESP,2017,3
ESP,2018,3
LKA,2013,2
LKA,2014,2
LKA,2015,2
LKA,2016,2
LKA,2017,2
LKA,2018,2
SDN,2013,1
SDN,2014,1
SDN,2015,1
SDN,2016,1
SDN,2017,1
SDN,2018,1
SUR,2013,3
SUR,2014,3
SUR,2015,3
SUR,2016,3
SUR,2017,3
SUR,2018,3
SWZ,2013,1
SWZ,2014,1
SWZ,2015,1
SWZ,2016,1
SWZ,2017,1
SWZ,2018,1
SWE,2013,3
SWE,2014,3
SWE,2015,3
SWE,2016,3
SWE,2017,3
SWE,2018,3
CHE,2013,3
CHE,2014,3
CHE,2015,3
CHE,2016,3
CHE,2017,3
CHE,2018,3
SYR,2013,1
SYR,2014,1
SYR,2015,1
SYR,2016,1
SYR,2017,1
SYR,2018,1
TWN,2013,3
TWN,2014,3
TWN,2015,3
TWN,2016,3
TWN,2017,3
TWN,2018,3
TJK,2013,1
TJK,2014,1
TJK,2015,1
TJK,2016,1
TJK,2017,1
TJK,2018,1
THA,2013,2
THA,2014,2
THA,2015,1
THA,2016,1
THA,2017,1
THA,2018,1
COD,2013,1
COD,2014,1
COD,2015,1
COD,2016,1
COD,2017,1
COD,2018,1
MKD,2013,2
MKD,2014,2
MKD,2015,2
MKD,2016,2
MKD,2017,2
MKD,2018,2
TLS,2013,2
TLS,2014,2
TLS,2015,2
TLS,2016,2
TLS,2017,2
TLS,2018,3
TGO,2013,2
TGO,2014,2
TGO,2015,2
TGO,2016,2
TGO,2017,2
TGO,2018,2
TON,2013,3
TON,2014,3
TON,2015,3
TON,2016,3
TON,2017,3
TON,2018,3
TTO,2013,3
TTO,2014,3
TTO,2015,3
TTO,2016,3
TTO,2017,3
TTO,2018,3
TUN,2013,2
TUN,2014,2
TUN,2015,3
TUN,2016,3
TUN,2017,3
TUN,2018,3
TUR,2013,2
TUR,2014,2
TUR,2015,2
TUR,2016,2
TUR,2017,2
TUR,2018,1
TKM,2013,1
TKM,2014,1
TKM,2015,1
TKM,2016,1
TKM,2017,1
TKM,2018,1
TUV,2013,3
TUV,2014,3
TUV,2015,3
TUV,2016,3
TUV,2017,3
TUV,2018,3
UGA,2013,2
UGA,2014,2
UGA,2015,1
UGA,2016,1
UGA,2017,1
UGA,2018,2
UKR,2013,2
UKR,2014,2
UKR,2015,2
UKR,2016,2
UKR,2017,2
UKR,2018,2
ARE,2013,1
ARE,2014,1
ARE,2015,1
ARE,2016,1
ARE,2017,1
ARE,2018,1
GBR,2013,3
GBR,2014,3
GBR,2015,3
GBR,2016,3
GBR,2017,3
GBR,2018,3
TZA,2013,2
TZA,2014,2
TZA,2015,2
TZA,2016,2
TZA,2017,2
TZA,2018,2
USA,2013,3
USA,2014,3
USA,2015,3
USA,2016,3
USA,2017,3
USA,2018,3
URY,2013,3
URY,2014,3
URY,2015,3
URY,2016,3
URY,2017,3
URY,2018,3
UZB,2013,1
UZB,2014,1
UZB,2015,1
UZB,2016,1
UZB,2017,1
UZB,2018,1
VUT,2013,3
VUT,2014,3
VUT,2015,3
VUT,2016,3
VUT,2017,3
VUT,2018,3
VEN,2013,2
VEN,2014,2
VEN,2015,2
VEN,2016,2
VEN,2017,1
VEN,2018,1
VNM,2013,1
VNM,2014,1
VNM,2015,1
VNM,2016,1
VNM,2017,1
VNM,2018,1
ESH,2013,1
ESH,2014,1
ESH,2015,1
ESH,2016,1
ESH,2017,1
ESH,2018,1
YEM,2013,1
YEM,2014,1
YEM,2015,1
YEM,2016,1
YEM,2017,1
YEM,2018,1
ZMB,2013,2
ZMB,2014,2
ZMB,2015,2
ZMB,2016,2
ZMB,2017,2
ZMB,2018,2
ZWE,2013,1
ZWE,2014,1
ZWE,2015,1
ZWE,2016,2
ZWE,2017,2
ZWE,2018,1
